%YAML 1.1
%TAG !u! tag:unity3d.com,2011:
--- !u!1045 &1
EditorBuildSettings:
  m_ObjectHideFlags: 0
  serializedVersion: 2
  m_Scenes:
  - enabled: 1
    path: Assets/Main/Penguin/Scenes/TitleBg.unity
    guid: 6348f702afcc4bc4a8292db8d84b59dc
  - enabled: 1
    path: Assets/Main/Penguin/Scenes/GameSelection.unity
    guid: 65e77d2a5144bd34e8fb3928ac7d3216
  - enabled: 1
    path: Assets/Main/twodotzero/Scenes/Level1.unity
    guid: 90e60514d48e48845ba6e9e745602e55
  - enabled: 1
    path: Assets/Main/twodotzero/Scenes/Level2.unity
    guid: 0c0b5e1cc7d7fa34c8fe3ccc8f340b9e
  - enabled: 1
    path: Assets/Main/twodotzero/Scenes/Level3.unity
    guid: 5b95c8d13817ac64a9d0e8d196a81c71
  - enabled: 1
    path: Assets/Main/twodotzero/Scenes/Level4.unity
    guid: 3158dc23611d0a842a3ee701cad2b294
  - enabled: 1
    path: Assets/Main/twodotzero/Scenes/Level5.unity
    guid: f7fe8ab0661da7442a0cc4ea2c4d2220
  - enabled: 1
    path: Assets/Main/twodotzero/Scenes/Level6.unity
    guid: 9d0597d860405b84199fe11ff9c1cb11
  m_configObjects: {}
