%YAML 1.1
%TAG !u! tag:unity3d.com,2011:
--- !u!78 &1
TagManager:
  serializedVersion: 2
  tags:
  - Ground
  - Wall
  - CantDraw
  - DeathTrigger
  - NotForJump
  layers:
  - Default
  - TransparentFX
  - Ignore Raycast
  - 
  - Water
  - UI
  - 
  - 
  - Drawing
  - OnDraw
  - Wall
  - Ground
  - Cloud
  - Character
  - BtnTrigger
  - 
  - 
  - 
  - 
  - 
  - 
  - 
  - 
  - 
  - 
  - 
  - 
  - 
  - 
  - 
  - 
  - 
  m_SortingLayers:
  - name: Default
    uniqueID: 0
    locked: 0
  - name: Character
    uniqueID: 737942881
    locked: 0
  - name: TopLayer
    uniqueID: 1556629111
    locked: 0
