%YAML 1.1
%TAG !u! tag:unity3d.com,2011:
--- !u!1 &5289173482673525301
GameObject:
  m_ObjectHideFlags: 0
  m_CorrespondingSourceObject: {fileID: 0}
  m_PrefabInstance: {fileID: 0}
  m_PrefabAsset: {fileID: 0}
  serializedVersion: 6
  m_Component:
  - component: {fileID: 4083918653700243543}
  - component: {fileID: 4262621050037930089}
  m_Layer: 12
  m_Name: TP Ground Cloud
  m_TagString: Untagged
  m_Icon: {fileID: 0}
  m_NavMeshLayer: 0
  m_StaticEditorFlags: 0
  m_IsActive: 1
--- !u!4 &4083918653700243543
Transform:
  m_ObjectHideFlags: 0
  m_CorrespondingSourceObject: {fileID: 0}
  m_PrefabInstance: {fileID: 0}
  m_PrefabAsset: {fileID: 0}
  m_GameObject: {fileID: 5289173482673525301}
  m_LocalRotation: {x: 0, y: 0, z: 0, w: 1}
  m_LocalPosition: {x: 0, y: 0, z: 0}
  m_LocalScale: {x: 1, y: 1, z: 1}
  m_Children:
  - {fileID: 887048975310578167}
  m_Father: {fileID: 0}
  m_RootOrder: 0
  m_LocalEulerAnglesHint: {x: 0, y: 0, z: 0}
--- !u!156049354 &4262621050037930089
Grid:
  m_ObjectHideFlags: 0
  m_CorrespondingSourceObject: {fileID: 0}
  m_PrefabInstance: {fileID: 0}
  m_PrefabAsset: {fileID: 0}
  m_GameObject: {fileID: 5289173482673525301}
  m_Enabled: 1
  m_CellSize: {x: 1, y: 1, z: 0}
  m_CellGap: {x: 0, y: 0, z: 0}
  m_CellLayout: 0
  m_CellSwizzle: 0
--- !u!1 &7250160449433861624
GameObject:
  m_ObjectHideFlags: 0
  m_CorrespondingSourceObject: {fileID: 0}
  m_PrefabInstance: {fileID: 0}
  m_PrefabAsset: {fileID: 0}
  serializedVersion: 6
  m_Component:
  - component: {fileID: 887048975310578167}
  - component: {fileID: 6242566419027350148}
  - component: {fileID: 1378864101897745234}
  m_Layer: 12
  m_Name: Layer1
  m_TagString: Untagged
  m_Icon: {fileID: 0}
  m_NavMeshLayer: 0
  m_StaticEditorFlags: 0
  m_IsActive: 1
--- !u!4 &887048975310578167
Transform:
  m_ObjectHideFlags: 0
  m_CorrespondingSourceObject: {fileID: 0}
  m_PrefabInstance: {fileID: 0}
  m_PrefabAsset: {fileID: 0}
  m_GameObject: {fileID: 7250160449433861624}
  m_LocalRotation: {x: -0, y: -0, z: -0, w: 1}
  m_LocalPosition: {x: 0, y: 0, z: 0}
  m_LocalScale: {x: 1, y: 1, z: 1}
  m_Children: []
  m_Father: {fileID: 4083918653700243543}
  m_RootOrder: 0
  m_LocalEulerAnglesHint: {x: 0, y: 0, z: 0}
--- !u!1839735485 &6242566419027350148
Tilemap:
  m_ObjectHideFlags: 0
  m_CorrespondingSourceObject: {fileID: 0}
  m_PrefabInstance: {fileID: 0}
  m_PrefabAsset: {fileID: 0}
  m_GameObject: {fileID: 7250160449433861624}
  m_Enabled: 1
  m_Tiles:
  - first: {x: 4, y: 6, z: 0}
    second:
      serializedVersion: 2
      m_TileIndex: 30
      m_TileSpriteIndex: 30
      m_TileMatrixIndex: 0
      m_TileColorIndex: 35
      m_TileObjectToInstantiateIndex: 65535
      dummyAlignment: 0
      m_AllTileFlags: 1073741825
  - first: {x: 5, y: 6, z: 0}
    second:
      serializedVersion: 2
      m_TileIndex: 31
      m_TileSpriteIndex: 31
      m_TileMatrixIndex: 0
      m_TileColorIndex: 35
      m_TileObjectToInstantiateIndex: 65535
      dummyAlignment: 0
      m_AllTileFlags: 1073741825
  - first: {x: 6, y: 6, z: 0}
    second:
      serializedVersion: 2
      m_TileIndex: 29
      m_TileSpriteIndex: 29
      m_TileMatrixIndex: 0
      m_TileColorIndex: 35
      m_TileObjectToInstantiateIndex: 65535
      dummyAlignment: 0
      m_AllTileFlags: 1073741825
  - first: {x: 4, y: 7, z: 0}
    second:
      serializedVersion: 2
      m_TileIndex: 28
      m_TileSpriteIndex: 28
      m_TileMatrixIndex: 0
      m_TileColorIndex: 35
      m_TileObjectToInstantiateIndex: 65535
      dummyAlignment: 0
      m_AllTileFlags: 1073741825
  - first: {x: 6, y: 7, z: 0}
    second:
      serializedVersion: 2
      m_TileIndex: 27
      m_TileSpriteIndex: 27
      m_TileMatrixIndex: 0
      m_TileColorIndex: 35
      m_TileObjectToInstantiateIndex: 65535
      dummyAlignment: 0
      m_AllTileFlags: 1073741825
  - first: {x: 9, y: 7, z: 0}
    second:
      serializedVersion: 2
      m_TileIndex: 1
      m_TileSpriteIndex: 1
      m_TileMatrixIndex: 0
      m_TileColorIndex: 35
      m_TileObjectToInstantiateIndex: 65535
      dummyAlignment: 0
      m_AllTileFlags: 1073741825
  - first: {x: 10, y: 7, z: 0}
    second:
      serializedVersion: 2
      m_TileIndex: 0
      m_TileSpriteIndex: 0
      m_TileMatrixIndex: 0
      m_TileColorIndex: 35
      m_TileObjectToInstantiateIndex: 65535
      dummyAlignment: 0
      m_AllTileFlags: 1073741825
  - first: {x: 4, y: 8, z: 0}
    second:
      serializedVersion: 2
      m_TileIndex: 25
      m_TileSpriteIndex: 25
      m_TileMatrixIndex: 0
      m_TileColorIndex: 35
      m_TileObjectToInstantiateIndex: 65535
      dummyAlignment: 0
      m_AllTileFlags: 1073741825
  - first: {x: 5, y: 8, z: 0}
    second:
      serializedVersion: 2
      m_TileIndex: 26
      m_TileSpriteIndex: 26
      m_TileMatrixIndex: 0
      m_TileColorIndex: 35
      m_TileObjectToInstantiateIndex: 65535
      dummyAlignment: 0
      m_AllTileFlags: 1073741825
  - first: {x: 6, y: 8, z: 0}
    second:
      serializedVersion: 2
      m_TileIndex: 24
      m_TileSpriteIndex: 24
      m_TileMatrixIndex: 0
      m_TileColorIndex: 35
      m_TileObjectToInstantiateIndex: 65535
      dummyAlignment: 0
      m_AllTileFlags: 1073741825
  - first: {x: 9, y: 8, z: 0}
    second:
      serializedVersion: 2
      m_TileIndex: 10
      m_TileSpriteIndex: 10
      m_TileMatrixIndex: 0
      m_TileColorIndex: 35
      m_TileObjectToInstantiateIndex: 65535
      dummyAlignment: 0
      m_AllTileFlags: 1073741825
  - first: {x: 10, y: 8, z: 0}
    second:
      serializedVersion: 2
      m_TileIndex: 2
      m_TileSpriteIndex: 2
      m_TileMatrixIndex: 0
      m_TileColorIndex: 35
      m_TileObjectToInstantiateIndex: 65535
      dummyAlignment: 0
      m_AllTileFlags: 1073741825
  - first: {x: 4, y: 9, z: 0}
    second:
      serializedVersion: 2
      m_TileIndex: 17
      m_TileSpriteIndex: 17
      m_TileMatrixIndex: 0
      m_TileColorIndex: 35
      m_TileObjectToInstantiateIndex: 65535
      dummyAlignment: 0
      m_AllTileFlags: 1073741825
  - first: {x: 5, y: 9, z: 0}
    second:
      serializedVersion: 2
      m_TileIndex: 16
      m_TileSpriteIndex: 16
      m_TileMatrixIndex: 0
      m_TileColorIndex: 35
      m_TileObjectToInstantiateIndex: 65535
      dummyAlignment: 0
      m_AllTileFlags: 1073741825
  - first: {x: 6, y: 9, z: 0}
    second:
      serializedVersion: 2
      m_TileIndex: 15
      m_TileSpriteIndex: 15
      m_TileMatrixIndex: 0
      m_TileColorIndex: 35
      m_TileObjectToInstantiateIndex: 65535
      dummyAlignment: 0
      m_AllTileFlags: 1073741825
  - first: {x: 7, y: 9, z: 0}
    second:
      serializedVersion: 2
      m_TileIndex: 14
      m_TileSpriteIndex: 14
      m_TileMatrixIndex: 0
      m_TileColorIndex: 35
      m_TileObjectToInstantiateIndex: 65535
      dummyAlignment: 0
      m_AllTileFlags: 1073741825
  - first: {x: 9, y: 9, z: 0}
    second:
      serializedVersion: 2
      m_TileIndex: 4
      m_TileSpriteIndex: 4
      m_TileMatrixIndex: 0
      m_TileColorIndex: 35
      m_TileObjectToInstantiateIndex: 65535
      dummyAlignment: 0
      m_AllTileFlags: 1073741825
  - first: {x: 10, y: 9, z: 0}
    second:
      serializedVersion: 2
      m_TileIndex: 3
      m_TileSpriteIndex: 3
      m_TileMatrixIndex: 0
      m_TileColorIndex: 35
      m_TileObjectToInstantiateIndex: 65535
      dummyAlignment: 0
      m_AllTileFlags: 1073741825
  - first: {x: 4, y: 10, z: 0}
    second:
      serializedVersion: 2
      m_TileIndex: 33
      m_TileSpriteIndex: 33
      m_TileMatrixIndex: 0
      m_TileColorIndex: 35
      m_TileObjectToInstantiateIndex: 65535
      dummyAlignment: 0
      m_AllTileFlags: 1073741825
  - first: {x: 5, y: 10, z: 0}
    second:
      serializedVersion: 2
      m_TileIndex: 34
      m_TileSpriteIndex: 34
      m_TileMatrixIndex: 0
      m_TileColorIndex: 35
      m_TileObjectToInstantiateIndex: 65535
      dummyAlignment: 0
      m_AllTileFlags: 1073741825
  - first: {x: 6, y: 10, z: 0}
    second:
      serializedVersion: 2
      m_TileIndex: 32
      m_TileSpriteIndex: 32
      m_TileMatrixIndex: 0
      m_TileColorIndex: 35
      m_TileObjectToInstantiateIndex: 65535
      dummyAlignment: 0
      m_AllTileFlags: 1073741825
  - first: {x: 7, y: 10, z: 0}
    second:
      serializedVersion: 2
      m_TileIndex: 23
      m_TileSpriteIndex: 23
      m_TileMatrixIndex: 0
      m_TileColorIndex: 35
      m_TileObjectToInstantiateIndex: 65535
      dummyAlignment: 0
      m_AllTileFlags: 1073741825
  - first: {x: 9, y: 10, z: 0}
    second:
      serializedVersion: 2
      m_TileIndex: 11
      m_TileSpriteIndex: 11
      m_TileMatrixIndex: 0
      m_TileColorIndex: 35
      m_TileObjectToInstantiateIndex: 65535
      dummyAlignment: 0
      m_AllTileFlags: 1073741825
  - first: {x: 10, y: 10, z: 0}
    second:
      serializedVersion: 2
      m_TileIndex: 5
      m_TileSpriteIndex: 5
      m_TileMatrixIndex: 0
      m_TileColorIndex: 35
      m_TileObjectToInstantiateIndex: 65535
      dummyAlignment: 0
      m_AllTileFlags: 1073741825
  - first: {x: 4, y: 11, z: 0}
    second:
      serializedVersion: 2
      m_TileIndex: 20
      m_TileSpriteIndex: 20
      m_TileMatrixIndex: 0
      m_TileColorIndex: 35
      m_TileObjectToInstantiateIndex: 65535
      dummyAlignment: 0
      m_AllTileFlags: 1073741825
  - first: {x: 5, y: 11, z: 0}
    second:
      serializedVersion: 2
      m_TileIndex: 19
      m_TileSpriteIndex: 19
      m_TileMatrixIndex: 0
      m_TileColorIndex: 35
      m_TileObjectToInstantiateIndex: 65535
      dummyAlignment: 0
      m_AllTileFlags: 1073741825
  - first: {x: 6, y: 11, z: 0}
    second:
      serializedVersion: 2
      m_TileIndex: 18
      m_TileSpriteIndex: 18
      m_TileMatrixIndex: 0
      m_TileColorIndex: 35
      m_TileObjectToInstantiateIndex: 65535
      dummyAlignment: 0
      m_AllTileFlags: 1073741825
  - first: {x: 7, y: 11, z: 0}
    second:
      serializedVersion: 2
      m_TileIndex: 22
      m_TileSpriteIndex: 22
      m_TileMatrixIndex: 0
      m_TileColorIndex: 35
      m_TileObjectToInstantiateIndex: 65535
      dummyAlignment: 0
      m_AllTileFlags: 1073741825
  - first: {x: 9, y: 11, z: 0}
    second:
      serializedVersion: 2
      m_TileIndex: 7
      m_TileSpriteIndex: 7
      m_TileMatrixIndex: 0
      m_TileColorIndex: 35
      m_TileObjectToInstantiateIndex: 65535
      dummyAlignment: 0
      m_AllTileFlags: 1073741825
  - first: {x: 10, y: 11, z: 0}
    second:
      serializedVersion: 2
      m_TileIndex: 6
      m_TileSpriteIndex: 6
      m_TileMatrixIndex: 0
      m_TileColorIndex: 35
      m_TileObjectToInstantiateIndex: 65535
      dummyAlignment: 0
      m_AllTileFlags: 1073741825
  - first: {x: 4, y: 12, z: 0}
    second:
      serializedVersion: 2
      m_TileIndex: 9
      m_TileSpriteIndex: 9
      m_TileMatrixIndex: 0
      m_TileColorIndex: 35
      m_TileObjectToInstantiateIndex: 65535
      dummyAlignment: 0
      m_AllTileFlags: 1073741825
  - first: {x: 5, y: 12, z: 0}
    second:
      serializedVersion: 2
      m_TileIndex: 35
      m_TileSpriteIndex: 35
      m_TileMatrixIndex: 0
      m_TileColorIndex: 35
      m_TileObjectToInstantiateIndex: 65535
      dummyAlignment: 0
      m_AllTileFlags: 1073741825
  - first: {x: 6, y: 12, z: 0}
    second:
      serializedVersion: 2
      m_TileIndex: 8
      m_TileSpriteIndex: 8
      m_TileMatrixIndex: 0
      m_TileColorIndex: 35
      m_TileObjectToInstantiateIndex: 65535
      dummyAlignment: 0
      m_AllTileFlags: 1073741825
  - first: {x: 7, y: 12, z: 0}
    second:
      serializedVersion: 2
      m_TileIndex: 21
      m_TileSpriteIndex: 21
      m_TileMatrixIndex: 0
      m_TileColorIndex: 35
      m_TileObjectToInstantiateIndex: 65535
      dummyAlignment: 0
      m_AllTileFlags: 1073741825
  - first: {x: 9, y: 12, z: 0}
    second:
      serializedVersion: 2
      m_TileIndex: 13
      m_TileSpriteIndex: 13
      m_TileMatrixIndex: 0
      m_TileColorIndex: 35
      m_TileObjectToInstantiateIndex: 65535
      dummyAlignment: 0
      m_AllTileFlags: 1073741825
  - first: {x: 10, y: 12, z: 0}
    second:
      serializedVersion: 2
      m_TileIndex: 12
      m_TileSpriteIndex: 12
      m_TileMatrixIndex: 0
      m_TileColorIndex: 35
      m_TileObjectToInstantiateIndex: 65535
      dummyAlignment: 0
      m_AllTileFlags: 1073741825
  m_AnimatedTiles: {}
  m_TileAssetArray:
  - m_RefCount: 1
    m_Data: {fileID: 11400000, guid: f99e72a612fbf2344b46aa705e7299b4, type: 2}
  - m_RefCount: 1
    m_Data: {fileID: 11400000, guid: 5eb12b11f16ab6d419a0b25187fff402, type: 2}
  - m_RefCount: 1
    m_Data: {fileID: 11400000, guid: 74cdf853b37748345add42db7cb7a0f6, type: 2}
  - m_RefCount: 1
    m_Data: {fileID: 11400000, guid: 2a3e123d38842da4c80ebd98db622a7d, type: 2}
  - m_RefCount: 1
    m_Data: {fileID: 11400000, guid: 186f8a771974f4e4c92ccb951ae7d159, type: 2}
  - m_RefCount: 1
    m_Data: {fileID: 11400000, guid: 9b797c2c4910d444ab191b8b3df74063, type: 2}
  - m_RefCount: 1
    m_Data: {fileID: 11400000, guid: 4f95297037dcb5043bdd91990e24346b, type: 2}
  - m_RefCount: 1
    m_Data: {fileID: 11400000, guid: 871e5f5ee5288ed40937c8296a779e89, type: 2}
  - m_RefCount: 1
    m_Data: {fileID: 11400000, guid: 4f6505571617b584986e46098f687a6f, type: 2}
  - m_RefCount: 1
    m_Data: {fileID: 11400000, guid: 6d764cab3f4e0d8469b1207e749c0931, type: 2}
  - m_RefCount: 1
    m_Data: {fileID: 11400000, guid: 8c97b181da2abb24aaa35f48afaa85d9, type: 2}
  - m_RefCount: 1
    m_Data: {fileID: 11400000, guid: e8926863e534c684ab0f08a36cd3d872, type: 2}
  - m_RefCount: 1
    m_Data: {fileID: 11400000, guid: c5656c10b9994934e82e7e31655030dc, type: 2}
  - m_RefCount: 1
    m_Data: {fileID: 11400000, guid: 912d05c04db029447a66d92affb31e27, type: 2}
  - m_RefCount: 1
    m_Data: {fileID: 11400000, guid: c6f4c1df052696345aa3434a88329b84, type: 2}
  - m_RefCount: 1
    m_Data: {fileID: 11400000, guid: f2a66aed4cfa5964bbf730fd6645adad, type: 2}
  - m_RefCount: 1
    m_Data: {fileID: 11400000, guid: 5498e7c6eb12b434e9ef27d8ceffe2b8, type: 2}
  - m_RefCount: 1
    m_Data: {fileID: 11400000, guid: 050db762304b9dd479937c74e6aa2f09, type: 2}
  - m_RefCount: 1
    m_Data: {fileID: 11400000, guid: f9defcafed4f81949bdd88bdb882e845, type: 2}
  - m_RefCount: 1
    m_Data: {fileID: 11400000, guid: ea34bd3730f598e4aa587396f08b725a, type: 2}
  - m_RefCount: 1
    m_Data: {fileID: 11400000, guid: e4fee71746f242c4aa01a7b4a9e6a8af, type: 2}
  - m_RefCount: 1
    m_Data: {fileID: 11400000, guid: 4e1ee89cb0de73b4bad2124768b74d8b, type: 2}
  - m_RefCount: 1
    m_Data: {fileID: 11400000, guid: dc9d61b4d4f08484f8e03ac570da4133, type: 2}
  - m_RefCount: 1
    m_Data: {fileID: 11400000, guid: 3464a51a4478a194e943a8018a5bcbf2, type: 2}
  - m_RefCount: 1
    m_Data: {fileID: 11400000, guid: 10ba7c8c9b506104fadc293380e041f5, type: 2}
  - m_RefCount: 1
    m_Data: {fileID: 11400000, guid: ec455fdee52513e4592d9d4a11ead7bc, type: 2}
  - m_RefCount: 1
    m_Data: {fileID: 11400000, guid: 9b2d9e7b98b28e247b1ce02e251661d7, type: 2}
  - m_RefCount: 1
    m_Data: {fileID: 11400000, guid: 81614dd91a1821a45a09fe44d5a4ff8f, type: 2}
  - m_RefCount: 1
    m_Data: {fileID: 11400000, guid: 1a08ef60088f4a042b00c8f0c5a8ff68, type: 2}
  - m_RefCount: 1
    m_Data: {fileID: 11400000, guid: 66d6c8d44b0308d4288ae360f8fc9d1b, type: 2}
  - m_RefCount: 1
    m_Data: {fileID: 11400000, guid: 9132a2b281154374fb889530891b3cf0, type: 2}
  - m_RefCount: 1
    m_Data: {fileID: 11400000, guid: 24fbd68f7ca46c64d9863464254cdf0e, type: 2}
  - m_RefCount: 1
    m_Data: {fileID: 11400000, guid: 921ce93dc0f13494a975b608b069d264, type: 2}
  - m_RefCount: 1
    m_Data: {fileID: 11400000, guid: b6dd010365fea6a43b31c89e54ce2d2b, type: 2}
  - m_RefCount: 1
    m_Data: {fileID: 11400000, guid: 5b2882a9260d22d4ab0aa2c3b0232a1d, type: 2}
  - m_RefCount: 1
    m_Data: {fileID: 11400000, guid: 5225d250240331d46a478801a5526196, type: 2}
  m_TileSpriteArray:
  - m_RefCount: 1
    m_Data: {fileID: 21300072, guid: 4ff0f579a88e4ee49a2539803ea2b4ab, type: 3}
  - m_RefCount: 1
    m_Data: {fileID: 21300070, guid: 4ff0f579a88e4ee49a2539803ea2b4ab, type: 3}
  - m_RefCount: 1
    m_Data: {fileID: 21300068, guid: 4ff0f579a88e4ee49a2539803ea2b4ab, type: 3}
  - m_RefCount: 1
    m_Data: {fileID: 21300066, guid: 4ff0f579a88e4ee49a2539803ea2b4ab, type: 3}
  - m_RefCount: 1
    m_Data: {fileID: 21300064, guid: 4ff0f579a88e4ee49a2539803ea2b4ab, type: 3}
  - m_RefCount: 1
    m_Data: {fileID: 21300062, guid: 4ff0f579a88e4ee49a2539803ea2b4ab, type: 3}
  - m_RefCount: 1
    m_Data: {fileID: 21300060, guid: 4ff0f579a88e4ee49a2539803ea2b4ab, type: 3}
  - m_RefCount: 1
    m_Data: {fileID: 21300058, guid: 4ff0f579a88e4ee49a2539803ea2b4ab, type: 3}
  - m_RefCount: 1
    m_Data: {fileID: 21300004, guid: 4ff0f579a88e4ee49a2539803ea2b4ab, type: 3}
  - m_RefCount: 1
    m_Data: {fileID: 21300000, guid: 4ff0f579a88e4ee49a2539803ea2b4ab, type: 3}
  - m_RefCount: 1
    m_Data: {fileID: 21300056, guid: 4ff0f579a88e4ee49a2539803ea2b4ab, type: 3}
  - m_RefCount: 1
    m_Data: {fileID: 21300054, guid: 4ff0f579a88e4ee49a2539803ea2b4ab, type: 3}
  - m_RefCount: 1
    m_Data: {fileID: 21300052, guid: 4ff0f579a88e4ee49a2539803ea2b4ab, type: 3}
  - m_RefCount: 1
    m_Data: {fileID: 21300050, guid: 4ff0f579a88e4ee49a2539803ea2b4ab, type: 3}
  - m_RefCount: 1
    m_Data: {fileID: 21300024, guid: 4ff0f579a88e4ee49a2539803ea2b4ab, type: 3}
  - m_RefCount: 1
    m_Data: {fileID: 21300022, guid: 4ff0f579a88e4ee49a2539803ea2b4ab, type: 3}
  - m_RefCount: 1
    m_Data: {fileID: 21300020, guid: 4ff0f579a88e4ee49a2539803ea2b4ab, type: 3}
  - m_RefCount: 1
    m_Data: {fileID: 21300018, guid: 4ff0f579a88e4ee49a2539803ea2b4ab, type: 3}
  - m_RefCount: 1
    m_Data: {fileID: 21300014, guid: 4ff0f579a88e4ee49a2539803ea2b4ab, type: 3}
  - m_RefCount: 1
    m_Data: {fileID: 21300012, guid: 4ff0f579a88e4ee49a2539803ea2b4ab, type: 3}
  - m_RefCount: 1
    m_Data: {fileID: 21300016, guid: 4ff0f579a88e4ee49a2539803ea2b4ab, type: 3}
  - m_RefCount: 1
    m_Data: {fileID: 21300026, guid: 4ff0f579a88e4ee49a2539803ea2b4ab, type: 3}
  - m_RefCount: 1
    m_Data: {fileID: 21300028, guid: 4ff0f579a88e4ee49a2539803ea2b4ab, type: 3}
  - m_RefCount: 1
    m_Data: {fileID: 21300032, guid: 4ff0f579a88e4ee49a2539803ea2b4ab, type: 3}
  - m_RefCount: 1
    m_Data: {fileID: 21300046, guid: 4ff0f579a88e4ee49a2539803ea2b4ab, type: 3}
  - m_RefCount: 1
    m_Data: {fileID: 21300048, guid: 4ff0f579a88e4ee49a2539803ea2b4ab, type: 3}
  - m_RefCount: 1
    m_Data: {fileID: 21300034, guid: 4ff0f579a88e4ee49a2539803ea2b4ab, type: 3}
  - m_RefCount: 1
    m_Data: {fileID: 21300038, guid: 4ff0f579a88e4ee49a2539803ea2b4ab, type: 3}
  - m_RefCount: 1
    m_Data: {fileID: 21300036, guid: 4ff0f579a88e4ee49a2539803ea2b4ab, type: 3}
  - m_RefCount: 1
    m_Data: {fileID: 21300044, guid: 4ff0f579a88e4ee49a2539803ea2b4ab, type: 3}
  - m_RefCount: 1
    m_Data: {fileID: 21300042, guid: 4ff0f579a88e4ee49a2539803ea2b4ab, type: 3}
  - m_RefCount: 1
    m_Data: {fileID: 21300040, guid: 4ff0f579a88e4ee49a2539803ea2b4ab, type: 3}
  - m_RefCount: 1
    m_Data: {fileID: 21300006, guid: 4ff0f579a88e4ee49a2539803ea2b4ab, type: 3}
  - m_RefCount: 1
    m_Data: {fileID: 21300010, guid: 4ff0f579a88e4ee49a2539803ea2b4ab, type: 3}
  - m_RefCount: 1
    m_Data: {fileID: 21300008, guid: 4ff0f579a88e4ee49a2539803ea2b4ab, type: 3}
  - m_RefCount: 1
    m_Data: {fileID: 21300002, guid: 4ff0f579a88e4ee49a2539803ea2b4ab, type: 3}
  m_TileMatrixArray:
  - m_RefCount: 36
    m_Data:
      e00: 1
      e01: 0
      e02: 0
      e03: 0
      e10: 0
      e11: 1
      e12: 0
      e13: 0
      e20: 0
      e21: 0
      e22: 1
      e23: 0
      e30: 0
      e31: 0
      e32: 0
      e33: 1
  m_TileColorArray:
  - m_RefCount: 0
    m_Data: {r: 1.4e-44, g: 1.4e-44, b: 1.4e-44, a: 1.4e-44}
  - m_RefCount: 0
    m_Data: {r: 6e-45, g: 6e-45, b: 6e-45, a: 6e-45}
  - m_RefCount: 0
    m_Data: {r: 7e-45, g: 7e-45, b: 7e-45, a: 7e-45}
  - m_RefCount: 0
    m_Data: {r: 8e-45, g: 8e-45, b: 8e-45, a: 8e-45}
  - m_RefCount: 0
    m_Data: {r: 6e-45, g: 6e-45, b: 6e-45, a: 6e-45}
  - m_RefCount: 0
    m_Data: {r: 8e-45, g: 8e-45, b: 8e-45, a: 8e-45}
  - m_RefCount: 0
    m_Data: {r: 1.3e-44, g: 1.3e-44, b: 1.3e-44, a: 1.3e-44}
  - m_RefCount: 0
    m_Data: {r: 1.4e-44, g: 1.4e-44, b: 1.4e-44, a: 1.4e-44}
  - m_RefCount: 0
    m_Data: {r: 6e-45, g: 6e-45, b: 6e-45, a: 6e-45}
  - m_RefCount: 0
    m_Data: {r: 7e-45, g: 7e-45, b: 7e-45, a: 7e-45}
  - m_RefCount: 0
    m_Data: {r: 8e-45, g: 8e-45, b: 8e-45, a: 8e-45}
  - m_RefCount: 0
    m_Data: {r: 1.3e-44, g: 1.3e-44, b: 1.3e-44, a: 1.3e-44}
  - m_RefCount: 0
    m_Data: {r: 1.4e-44, g: 1.4e-44, b: 1.4e-44, a: 1.4e-44}
  - m_RefCount: 0
    m_Data: {r: 6e-45, g: 6e-45, b: 6e-45, a: 6e-45}
  - m_RefCount: 0
    m_Data: {r: 7e-45, g: 7e-45, b: 7e-45, a: 7e-45}
  - m_RefCount: 0
    m_Data: {r: 8e-45, g: 8e-45, b: 8e-45, a: 8e-45}
  - m_RefCount: 0
    m_Data: {r: 1e-44, g: 1e-44, b: 1e-44, a: 1e-44}
  - m_RefCount: 0
    m_Data: {r: 1.3e-44, g: 1.3e-44, b: 1.3e-44, a: 1.3e-44}
  - m_RefCount: 0
    m_Data: {r: 1.4e-44, g: 1.4e-44, b: 1.4e-44, a: 1.4e-44}
  - m_RefCount: 0
    m_Data: {r: 6e-45, g: 6e-45, b: 6e-45, a: 6e-45}
  - m_RefCount: 0
    m_Data: {r: 7e-45, g: 7e-45, b: 7e-45, a: 7e-45}
  - m_RefCount: 0
    m_Data: {r: 8e-45, g: 8e-45, b: 8e-45, a: 8e-45}
  - m_RefCount: 0
    m_Data: {r: 1e-44, g: 1e-44, b: 1e-44, a: 1e-44}
  - m_RefCount: 0
    m_Data: {r: 1.3e-44, g: 1.3e-44, b: 1.3e-44, a: 1.3e-44}
  - m_RefCount: 0
    m_Data: {r: 1.4e-44, g: 1.4e-44, b: 1.4e-44, a: 1.4e-44}
  - m_RefCount: 0
    m_Data: {r: 6e-45, g: 6e-45, b: 6e-45, a: 6e-45}
  - m_RefCount: 0
    m_Data: {r: 7e-45, g: 7e-45, b: 7e-45, a: 7e-45}
  - m_RefCount: 0
    m_Data: {r: 8e-45, g: 8e-45, b: 8e-45, a: 8e-45}
  - m_RefCount: 0
    m_Data: {r: 1e-44, g: 1e-44, b: 1e-44, a: 1e-44}
  - m_RefCount: 0
    m_Data: {r: 1.3e-44, g: 1.3e-44, b: 1.3e-44, a: 1.3e-44}
  - m_RefCount: 0
    m_Data: {r: 1.4e-44, g: 1.4e-44, b: 1.4e-44, a: 1.4e-44}
  - m_RefCount: 0
    m_Data: {r: 6e-45, g: 6e-45, b: 6e-45, a: 6e-45}
  - m_RefCount: 0
    m_Data: {r: 7e-45, g: 7e-45, b: 7e-45, a: 7e-45}
  - m_RefCount: 0
    m_Data: {r: 8e-45, g: 8e-45, b: 8e-45, a: 8e-45}
  - m_RefCount: 0
    m_Data: {r: 1e-44, g: 1e-44, b: 1e-44, a: 1e-44}
  - m_RefCount: 36
    m_Data: {r: 1, g: 1, b: 1, a: 1}
  m_TileObjectToInstantiateArray: []
  m_AnimationFrameRate: 1
  m_Color: {r: 1, g: 1, b: 1, a: 1}
  m_Origin: {x: -7, y: -6, z: 0}
  m_Size: {x: 18, y: 33, z: 1}
  m_TileAnchor: {x: 0.5, y: 0.5, z: 0}
  m_TileOrientation: 0
  m_TileOrientationMatrix:
    e00: 1
    e01: 0
    e02: 0
    e03: 0
    e10: 0
    e11: 1
    e12: 0
    e13: 0
    e20: 0
    e21: 0
    e22: 1
    e23: 0
    e30: 0
    e31: 0
    e32: 0
    e33: 1
--- !u!483693784 &1378864101897745234
TilemapRenderer:
  m_ObjectHideFlags: 0
  m_CorrespondingSourceObject: {fileID: 0}
  m_PrefabInstance: {fileID: 0}
  m_PrefabAsset: {fileID: 0}
  m_GameObject: {fileID: 7250160449433861624}
  m_Enabled: 1
  m_CastShadows: 0
  m_ReceiveShadows: 0
  m_DynamicOccludee: 0
  m_MotionVectors: 1
  m_LightProbeUsage: 0
  m_ReflectionProbeUsage: 0
  m_RayTracingMode: 0
  m_RayTraceProcedural: 0
  m_RenderingLayerMask: 1
  m_RendererPriority: 0
  m_Materials:
  - {fileID: 10754, guid: 0000000000000000f000000000000000, type: 0}
  m_StaticBatchInfo:
    firstSubMesh: 0
    subMeshCount: 0
  m_StaticBatchRoot: {fileID: 0}
  m_ProbeAnchor: {fileID: 0}
  m_LightProbeVolumeOverride: {fileID: 0}
  m_ScaleInLightmap: 1
  m_ReceiveGI: 1
  m_PreserveUVs: 0
  m_IgnoreNormalsForChartDetection: 0
  m_ImportantGI: 0
  m_StitchLightmapSeams: 0
  m_SelectedEditorRenderState: 0
  m_MinimumChartSize: 4
  m_AutoUVMaxDistance: 0.5
  m_AutoUVMaxAngle: 89
  m_LightmapParameters: {fileID: 0}
  m_SortingLayerID: 0
  m_SortingLayer: 0
  m_SortingOrder: 0
  m_ChunkSize: {x: 32, y: 32, z: 32}
  m_ChunkCullingBounds: {x: 0, y: 0, z: 0}
  m_MaxChunkCount: 16
  m_MaxFrameAge: 16
  m_SortOrder: 0
  m_Mode: 0
  m_DetectChunkCullingBounds: 0
  m_MaskInteraction: 0
--- !u!114 &3115071544818218113
MonoBehaviour:
  m_ObjectHideFlags: 0
  m_CorrespondingSourceObject: {fileID: 0}
  m_PrefabInstance: {fileID: 0}
  m_PrefabAsset: {fileID: 0}
  m_GameObject: {fileID: 0}
  m_Enabled: 1
  m_EditorHideFlags: 0
  m_Script: {fileID: 12395, guid: 0000000000000000e000000000000000, type: 0}
  m_Name: Palette Settings
  m_EditorClassIdentifier: 
  cellSizing: 0
  m_TransparencySortMode: 0
  m_TransparencySortAxis: {x: 0, y: 0, z: 1}
