%YAML 1.1
%TAG !u! tag:unity3d.com,2011:
--- !u!29 &1
OcclusionCullingSettings:
  m_ObjectHideFlags: 0
  serializedVersion: 2
  m_OcclusionBakeSettings:
    smallestOccluder: 5
    smallestHole: 0.25
    backfaceThreshold: 100
  m_SceneGUID: 00000000000000000000000000000000
  m_OcclusionCullingData: {fileID: 0}
--- !u!104 &2
RenderSettings:
  m_ObjectHideFlags: 0
  serializedVersion: 9
  m_Fog: 0
  m_FogColor: {r: 0.5, g: 0.5, b: 0.5, a: 1}
  m_FogMode: 3
  m_FogDensity: 0.01
  m_LinearFogStart: 0
  m_LinearFogEnd: 300
  m_AmbientSkyColor: {r: 0.212, g: 0.227, b: 0.259, a: 1}
  m_AmbientEquatorColor: {r: 0.114, g: 0.125, b: 0.133, a: 1}
  m_AmbientGroundColor: {r: 0.047, g: 0.043, b: 0.035, a: 1}
  m_AmbientIntensity: 1
  m_AmbientMode: 3
  m_SubtractiveShadowColor: {r: 0.42, g: 0.478, b: 0.627, a: 1}
  m_SkyboxMaterial: {fileID: 0}
  m_HaloStrength: 0.5
  m_FlareStrength: 1
  m_FlareFadeSpeed: 3
  m_HaloTexture: {fileID: 0}
  m_SpotCookie: {fileID: 10001, guid: 0000000000000000e000000000000000, type: 0}
  m_DefaultReflectionMode: 0
  m_DefaultReflectionResolution: 128
  m_ReflectionBounces: 1
  m_ReflectionIntensity: 1
  m_CustomReflection: {fileID: 0}
  m_Sun: {fileID: 0}
  m_IndirectSpecularColor: {r: 0, g: 0, b: 0, a: 1}
  m_UseRadianceAmbientProbe: 0
--- !u!157 &3
LightmapSettings:
  m_ObjectHideFlags: 0
  serializedVersion: 11
  m_GIWorkflowMode: 1
  m_GISettings:
    serializedVersion: 2
    m_BounceScale: 1
    m_IndirectOutputScale: 1
    m_AlbedoBoost: 1
    m_EnvironmentLightingMode: 0
    m_EnableBakedLightmaps: 0
    m_EnableRealtimeLightmaps: 0
  m_LightmapEditorSettings:
    serializedVersion: 12
    m_Resolution: 2
    m_BakeResolution: 40
    m_AtlasSize: 1024
    m_AO: 0
    m_AOMaxDistance: 1
    m_CompAOExponent: 1
    m_CompAOExponentDirect: 0
    m_ExtractAmbientOcclusion: 0
    m_Padding: 2
    m_LightmapParameters: {fileID: 0}
    m_LightmapsBakeMode: 1
    m_TextureCompression: 1
    m_FinalGather: 0
    m_FinalGatherFiltering: 1
    m_FinalGatherRayCount: 256
    m_ReflectionCompression: 2
    m_MixedBakeMode: 2
    m_BakeBackend: 0
    m_PVRSampling: 1
    m_PVRDirectSampleCount: 32
    m_PVRSampleCount: 500
    m_PVRBounces: 2
    m_PVREnvironmentSampleCount: 500
    m_PVREnvironmentReferencePointCount: 2048
    m_PVRFilteringMode: 2
    m_PVRDenoiserTypeDirect: 0
    m_PVRDenoiserTypeIndirect: 0
    m_PVRDenoiserTypeAO: 0
    m_PVRFilterTypeDirect: 0
    m_PVRFilterTypeIndirect: 0
    m_PVRFilterTypeAO: 0
    m_PVREnvironmentMIS: 0
    m_PVRCulling: 1
    m_PVRFilteringGaussRadiusDirect: 1
    m_PVRFilteringGaussRadiusIndirect: 5
    m_PVRFilteringGaussRadiusAO: 2
    m_PVRFilteringAtrousPositionSigmaDirect: 0.5
    m_PVRFilteringAtrousPositionSigmaIndirect: 2
    m_PVRFilteringAtrousPositionSigmaAO: 1
    m_ExportTrainingData: 0
    m_TrainingDataDestination: TrainingData
    m_LightProbeSampleCountMultiplier: 4
  m_LightingDataAsset: {fileID: 0}
  m_UseShadowmask: 1
--- !u!196 &4
NavMeshSettings:
  serializedVersion: 2
  m_ObjectHideFlags: 0
  m_BuildSettings:
    serializedVersion: 2
    agentTypeID: 0
    agentRadius: 0.5
    agentHeight: 2
    agentSlope: 45
    agentClimb: 0.4
    ledgeDropHeight: 0
    maxJumpAcrossDistance: 0
    minRegionArea: 2
    manualCellSize: 0
    cellSize: 0.16666667
    manualTileSize: 0
    tileSize: 256
    accuratePlacement: 0
    debug:
      m_Flags: 0
  m_NavMeshData: {fileID: 0}
--- !u!1 &519420028
GameObject:
  m_ObjectHideFlags: 0
  m_CorrespondingSourceObject: {fileID: 0}
  m_PrefabInstance: {fileID: 0}
  m_PrefabAsset: {fileID: 0}
  serializedVersion: 6
  m_Component:
  - component: {fileID: 519420032}
  - component: {fileID: 519420031}
  - component: {fileID: 519420029}
  m_Layer: 0
  m_Name: Main Camera
  m_TagString: MainCamera
  m_Icon: {fileID: 0}
  m_NavMeshLayer: 0
  m_StaticEditorFlags: 0
  m_IsActive: 1
--- !u!81 &519420029
AudioListener:
  m_ObjectHideFlags: 0
  m_CorrespondingSourceObject: {fileID: 0}
  m_PrefabInstance: {fileID: 0}
  m_PrefabAsset: {fileID: 0}
  m_GameObject: {fileID: 519420028}
  m_Enabled: 1
--- !u!20 &519420031
Camera:
  m_ObjectHideFlags: 0
  m_CorrespondingSourceObject: {fileID: 0}
  m_PrefabInstance: {fileID: 0}
  m_PrefabAsset: {fileID: 0}
  m_GameObject: {fileID: 519420028}
  m_Enabled: 1
  serializedVersion: 2
  m_ClearFlags: 2
  m_BackGroundColor: {r: 0.19215687, g: 0.3019608, b: 0.4745098, a: 0}
  m_projectionMatrixMode: 1
  m_GateFitMode: 2
  m_FOVAxisMode: 0
  m_SensorSize: {x: 36, y: 24}
  m_LensShift: {x: 0, y: 0}
  m_FocalLength: 50
  m_NormalizedViewPortRect:
    serializedVersion: 2
    x: 0
    y: 0
    width: 1
    height: 1
  near clip plane: 0.3
  far clip plane: 1000
  field of view: 60
  orthographic: 1
  orthographic size: 2.7498837
  m_Depth: -1
  m_CullingMask:
    serializedVersion: 2
    m_Bits: 4294967295
  m_RenderingPath: -1
  m_TargetTexture: {fileID: 0}
  m_TargetDisplay: 0
  m_TargetEye: 0
  m_HDR: 1
  m_AllowMSAA: 0
  m_AllowDynamicResolution: 0
  m_ForceIntoRT: 0
  m_OcclusionCulling: 0
  m_StereoConvergence: 10
  m_StereoSeparation: 0.022
--- !u!4 &519420032
Transform:
  m_ObjectHideFlags: 0
  m_CorrespondingSourceObject: {fileID: 0}
  m_PrefabInstance: {fileID: 0}
  m_PrefabAsset: {fileID: 0}
  m_GameObject: {fileID: 519420028}
  m_LocalRotation: {x: 0, y: 0, z: 0, w: 1}
  m_LocalPosition: {x: 1.16, y: 2.61, z: -10}
  m_LocalScale: {x: 1, y: 1, z: 1}
  m_Children: []
  m_Father: {fileID: 0}
  m_RootOrder: 1
  m_LocalEulerAnglesHint: {x: 0, y: 0, z: 0}
--- !u!1 &1797767347 stripped
GameObject:
  m_CorrespondingSourceObject: {fileID: 3553386483668471255, guid: 31ba7a06c1a2655499238bb6fccbafc6,
    type: 3}
  m_PrefabInstance: {fileID: 2378788872752431337}
  m_PrefabAsset: {fileID: 0}
--- !u!95 &1797767348
Animator:
  serializedVersion: 3
  m_ObjectHideFlags: 0
  m_CorrespondingSourceObject: {fileID: 0}
  m_PrefabInstance: {fileID: 0}
  m_PrefabAsset: {fileID: 0}
  m_GameObject: {fileID: 1797767347}
  m_Enabled: 1
  m_Avatar: {fileID: 0}
  m_Controller: {fileID: 9100000, guid: 01a57e4ab76148a418b000bebdfc85e2, type: 2}
  m_CullingMode: 0
  m_UpdateMode: 0
  m_ApplyRootMotion: 0
  m_LinearVelocityBlending: 0
  m_WarningMessage: 
  m_HasTransformHierarchy: 1
  m_AllowConstantClipSamplingOptimization: 1
  m_KeepAnimatorControllerStateOnDisable: 0
--- !u!1001 &2378788872752431337
PrefabInstance:
  m_ObjectHideFlags: 0
  serializedVersion: 2
  m_Modification:
    m_TransformParent: {fileID: 0}
    m_Modifications:
    - target: {fileID: 75228222239421159, guid: 31ba7a06c1a2655499238bb6fccbafc6,
        type: 3}
      propertyPath: m_LocalRotation.z
      value: -0.9844257
      objectReference: {fileID: 0}
    - target: {fileID: 75228222239421159, guid: 31ba7a06c1a2655499238bb6fccbafc6,
        type: 3}
      propertyPath: m_LocalRotation.w
      value: 0.17580116
      objectReference: {fileID: 0}
    - target: {fileID: 339003382026948022, guid: 31ba7a06c1a2655499238bb6fccbafc6,
        type: 3}
      propertyPath: m_LocalRotation.z
      value: -0.07886687
      objectReference: {fileID: 0}
    - target: {fileID: 339003382026948022, guid: 31ba7a06c1a2655499238bb6fccbafc6,
        type: 3}
      propertyPath: m_LocalRotation.w
      value: 0.9968852
      objectReference: {fileID: 0}
    - target: {fileID: 790895805601168349, guid: 31ba7a06c1a2655499238bb6fccbafc6,
        type: 3}
      propertyPath: m_LocalRotation.z
      value: -0.13707508
      objectReference: {fileID: 0}
    - target: {fileID: 790895805601168349, guid: 31ba7a06c1a2655499238bb6fccbafc6,
        type: 3}
      propertyPath: m_LocalRotation.w
      value: 0.99056065
      objectReference: {fileID: 0}
    - target: {fileID: 790895805601168349, guid: 31ba7a06c1a2655499238bb6fccbafc6,
        type: 3}
      propertyPath: m_LocalEulerAnglesHint.z
      value: -15.757001
      objectReference: {fileID: 0}
    - target: {fileID: 1104079655065633364, guid: 31ba7a06c1a2655499238bb6fccbafc6,
        type: 3}
      propertyPath: m_LocalRotation.x
      value: 0
      objectReference: {fileID: 0}
    - target: {fileID: 1104079655065633364, guid: 31ba7a06c1a2655499238bb6fccbafc6,
        type: 3}
      propertyPath: m_LocalRotation.y
      value: 0
      objectReference: {fileID: 0}
    - target: {fileID: 1104079655065633364, guid: 31ba7a06c1a2655499238bb6fccbafc6,
        type: 3}
      propertyPath: m_LocalRotation.z
      value: -0.00062243897
      objectReference: {fileID: 0}
    - target: {fileID: 1104079655065633364, guid: 31ba7a06c1a2655499238bb6fccbafc6,
        type: 3}
      propertyPath: m_LocalRotation.w
      value: 0.9999998
      objectReference: {fileID: 0}
    - target: {fileID: 1104079655065633364, guid: 31ba7a06c1a2655499238bb6fccbafc6,
        type: 3}
      propertyPath: m_LocalEulerAnglesHint.z
      value: 0
      objectReference: {fileID: 0}
    - target: {fileID: 1129990087570900206, guid: 31ba7a06c1a2655499238bb6fccbafc6,
        type: 3}
      propertyPath: m_Name
      value: char1
      objectReference: {fileID: 0}
    - target: {fileID: 1468142224208294694, guid: 31ba7a06c1a2655499238bb6fccbafc6,
        type: 3}
      propertyPath: m_LocalRotation.z
      value: -0.2235947
      objectReference: {fileID: 0}
    - target: {fileID: 1468142224208294694, guid: 31ba7a06c1a2655499238bb6fccbafc6,
        type: 3}
      propertyPath: m_LocalRotation.w
      value: 0.9746822
      objectReference: {fileID: 0}
    - target: {fileID: 1738856959615328360, guid: 31ba7a06c1a2655499238bb6fccbafc6,
        type: 3}
      propertyPath: m_LocalRotation.z
      value: 0.9993284
      objectReference: {fileID: 0}
    - target: {fileID: 1738856959615328360, guid: 31ba7a06c1a2655499238bb6fccbafc6,
        type: 3}
      propertyPath: m_LocalRotation.w
      value: 0.036645368
      objectReference: {fileID: 0}
    - target: {fileID: 1752001026671888744, guid: 31ba7a06c1a2655499238bb6fccbafc6,
        type: 3}
      propertyPath: m_LocalRotation.x
      value: -0.0106946835
      objectReference: {fileID: 0}
    - target: {fileID: 1752001026671888744, guid: 31ba7a06c1a2655499238bb6fccbafc6,
        type: 3}
      propertyPath: m_LocalRotation.y
      value: -0.00021115295
      objectReference: {fileID: 0}
    - target: {fileID: 1752001026671888744, guid: 31ba7a06c1a2655499238bb6fccbafc6,
        type: 3}
      propertyPath: m_LocalRotation.z
      value: 0.9882102
      objectReference: {fileID: 0}
    - target: {fileID: 1752001026671888744, guid: 31ba7a06c1a2655499238bb6fccbafc6,
        type: 3}
      propertyPath: m_LocalRotation.w
      value: 0.15272933
      objectReference: {fileID: 0}
    - target: {fileID: 2378788871312004186, guid: 31ba7a06c1a2655499238bb6fccbafc6,
        type: 3}
      propertyPath: m_LocalPosition.x
      value: 0.56735957
      objectReference: {fileID: 0}
    - target: {fileID: 2378788871312004186, guid: 31ba7a06c1a2655499238bb6fccbafc6,
        type: 3}
      propertyPath: m_LocalPosition.y
      value: 1.761214
      objectReference: {fileID: 0}
    - target: {fileID: 2378788871406333030, guid: 31ba7a06c1a2655499238bb6fccbafc6,
        type: 3}
      propertyPath: m_LocalRotation.z
      value: 0.3229194
      objectReference: {fileID: 0}
    - target: {fileID: 2378788871406333030, guid: 31ba7a06c1a2655499238bb6fccbafc6,
        type: 3}
      propertyPath: m_LocalRotation.w
      value: 0.9464265
      objectReference: {fileID: 0}
    - target: {fileID: 2378788871406333030, guid: 31ba7a06c1a2655499238bb6fccbafc6,
        type: 3}
      propertyPath: m_LocalEulerAnglesHint.z
      value: 37.679
      objectReference: {fileID: 0}
    - target: {fileID: 2378788871450898055, guid: 31ba7a06c1a2655499238bb6fccbafc6,
        type: 3}
      propertyPath: m_LocalPosition.x
      value: 0.64011586
      objectReference: {fileID: 0}
    - target: {fileID: 2378788871450898055, guid: 31ba7a06c1a2655499238bb6fccbafc6,
        type: 3}
      propertyPath: m_LocalPosition.y
      value: 0.25863725
      objectReference: {fileID: 0}
    - target: {fileID: 2378788871523666127, guid: 31ba7a06c1a2655499238bb6fccbafc6,
        type: 3}
      propertyPath: m_LocalPosition.x
      value: 1.042497
      objectReference: {fileID: 0}
    - target: {fileID: 2378788871523666127, guid: 31ba7a06c1a2655499238bb6fccbafc6,
        type: 3}
      propertyPath: m_LocalPosition.y
      value: 1.872064
      objectReference: {fileID: 0}
    - target: {fileID: 2378788871581618317, guid: 31ba7a06c1a2655499238bb6fccbafc6,
        type: 3}
      propertyPath: m_LocalRotation.x
      value: -0.00008485026
      objectReference: {fileID: 0}
    - target: {fileID: 2378788871581618317, guid: 31ba7a06c1a2655499238bb6fccbafc6,
        type: 3}
      propertyPath: m_LocalRotation.y
      value: -0.00027360764
      objectReference: {fileID: 0}
    - target: {fileID: 2378788871581618317, guid: 31ba7a06c1a2655499238bb6fccbafc6,
        type: 3}
      propertyPath: m_LocalRotation.z
      value: -0.28322327
      objectReference: {fileID: 0}
    - target: {fileID: 2378788871581618317, guid: 31ba7a06c1a2655499238bb6fccbafc6,
        type: 3}
      propertyPath: m_LocalRotation.w
      value: 0.95905393
      objectReference: {fileID: 0}
    - target: {fileID: 2378788871581618317, guid: 31ba7a06c1a2655499238bb6fccbafc6,
        type: 3}
      propertyPath: m_LocalEulerAnglesHint.x
      value: -0.018000001
      objectReference: {fileID: 0}
    - target: {fileID: 2378788871581618317, guid: 31ba7a06c1a2655499238bb6fccbafc6,
        type: 3}
      propertyPath: m_LocalEulerAnglesHint.y
      value: -360.027
      objectReference: {fileID: 0}
    - target: {fileID: 2378788871581618317, guid: 31ba7a06c1a2655499238bb6fccbafc6,
        type: 3}
      propertyPath: m_LocalEulerAnglesHint.z
      value: -12272.905
      objectReference: {fileID: 0}
    - target: {fileID: 2378788871708037295, guid: 31ba7a06c1a2655499238bb6fccbafc6,
        type: 3}
      propertyPath: m_LocalPosition.x
      value: 0.4481778
      objectReference: {fileID: 0}
    - target: {fileID: 2378788871708037295, guid: 31ba7a06c1a2655499238bb6fccbafc6,
        type: 3}
      propertyPath: m_LocalPosition.y
      value: 2.1738343
      objectReference: {fileID: 0}
    - target: {fileID: 2378788871884791107, guid: 31ba7a06c1a2655499238bb6fccbafc6,
        type: 3}
      propertyPath: m_LocalRotation.z
      value: 0.15003657
      objectReference: {fileID: 0}
    - target: {fileID: 2378788871884791107, guid: 31ba7a06c1a2655499238bb6fccbafc6,
        type: 3}
      propertyPath: m_LocalRotation.w
      value: 0.9886805
      objectReference: {fileID: 0}
    - target: {fileID: 2378788871884791107, guid: 31ba7a06c1a2655499238bb6fccbafc6,
        type: 3}
      propertyPath: m_LocalEulerAnglesHint.z
      value: 17.258001
      objectReference: {fileID: 0}
    - target: {fileID: 2378788871903404412, guid: 31ba7a06c1a2655499238bb6fccbafc6,
        type: 3}
      propertyPath: m_LocalRotation.z
      value: 0.057751372
      objectReference: {fileID: 0}
    - target: {fileID: 2378788871903404412, guid: 31ba7a06c1a2655499238bb6fccbafc6,
        type: 3}
      propertyPath: m_LocalRotation.w
      value: 0.99833107
      objectReference: {fileID: 0}
    - target: {fileID: 2378788871903404412, guid: 31ba7a06c1a2655499238bb6fccbafc6,
        type: 3}
      propertyPath: m_LocalEulerAnglesHint.z
      value: 6.622
      objectReference: {fileID: 0}
    - target: {fileID: 2378788872200813099, guid: 31ba7a06c1a2655499238bb6fccbafc6,
        type: 3}
      propertyPath: m_LocalPosition.y
      value: 0.74288344
      objectReference: {fileID: 0}
    - target: {fileID: 2378788872200813099, guid: 31ba7a06c1a2655499238bb6fccbafc6,
        type: 3}
      propertyPath: m_LocalPosition.x
      value: -1.061023
      objectReference: {fileID: 0}
    - target: {fileID: 2378788872674650711, guid: 31ba7a06c1a2655499238bb6fccbafc6,
        type: 3}
      propertyPath: m_LocalRotation.z
      value: 0.08236916
      objectReference: {fileID: 0}
    - target: {fileID: 2378788872674650711, guid: 31ba7a06c1a2655499238bb6fccbafc6,
        type: 3}
      propertyPath: m_LocalRotation.w
      value: 0.9966019
      objectReference: {fileID: 0}
    - target: {fileID: 2378788872674650711, guid: 31ba7a06c1a2655499238bb6fccbafc6,
        type: 3}
      propertyPath: m_LocalEulerAnglesHint.z
      value: -8270.55
      objectReference: {fileID: 0}
    - target: {fileID: 2378788872739931452, guid: 31ba7a06c1a2655499238bb6fccbafc6,
        type: 3}
      propertyPath: m_LocalPosition.x
      value: -0.7394209
      objectReference: {fileID: 0}
    - target: {fileID: 2378788872739931452, guid: 31ba7a06c1a2655499238bb6fccbafc6,
        type: 3}
      propertyPath: m_LocalPosition.y
      value: 2.151474
      objectReference: {fileID: 0}
    - target: {fileID: 2378788872773520513, guid: 31ba7a06c1a2655499238bb6fccbafc6,
        type: 3}
      propertyPath: m_LocalPosition.x
      value: -0.1950405
      objectReference: {fileID: 0}
    - target: {fileID: 2378788872773520513, guid: 31ba7a06c1a2655499238bb6fccbafc6,
        type: 3}
      propertyPath: m_LocalPosition.y
      value: 2.1887045
      objectReference: {fileID: 0}
    - target: {fileID: 2378788872844310190, guid: 31ba7a06c1a2655499238bb6fccbafc6,
        type: 3}
      propertyPath: m_LocalRotation.z
      value: -0.028403874
      objectReference: {fileID: 0}
    - target: {fileID: 2378788872844310190, guid: 31ba7a06c1a2655499238bb6fccbafc6,
        type: 3}
      propertyPath: m_LocalRotation.w
      value: 0.9995966
      objectReference: {fileID: 0}
    - target: {fileID: 2378788872844310190, guid: 31ba7a06c1a2655499238bb6fccbafc6,
        type: 3}
      propertyPath: m_LocalEulerAnglesHint.z
      value: 176.745
      objectReference: {fileID: 0}
    - target: {fileID: 2378788872844310190, guid: 31ba7a06c1a2655499238bb6fccbafc6,
        type: 3}
      propertyPath: m_LocalRotation.x
      value: -0
      objectReference: {fileID: 0}
    - target: {fileID: 2378788872844310190, guid: 31ba7a06c1a2655499238bb6fccbafc6,
        type: 3}
      propertyPath: m_LocalRotation.y
      value: -0
      objectReference: {fileID: 0}
    - target: {fileID: 2378788872844310190, guid: 31ba7a06c1a2655499238bb6fccbafc6,
        type: 3}
      propertyPath: m_LocalEulerAnglesHint.y
      value: -180
      objectReference: {fileID: 0}
    - target: {fileID: 2378788872844310190, guid: 31ba7a06c1a2655499238bb6fccbafc6,
        type: 3}
      propertyPath: m_LocalEulerAnglesHint.x
      value: -180
      objectReference: {fileID: 0}
    - target: {fileID: 2378788872978997276, guid: 31ba7a06c1a2655499238bb6fccbafc6,
        type: 3}
      propertyPath: m_LocalRotation.z
      value: -0.039738905
      objectReference: {fileID: 0}
    - target: {fileID: 2378788872978997276, guid: 31ba7a06c1a2655499238bb6fccbafc6,
        type: 3}
      propertyPath: m_LocalRotation.w
      value: 0.9992102
      objectReference: {fileID: 0}
    - target: {fileID: 2378788872978997276, guid: 31ba7a06c1a2655499238bb6fccbafc6,
        type: 3}
      propertyPath: m_LocalEulerAnglesHint.z
      value: -4.5550003
      objectReference: {fileID: 0}
    - target: {fileID: 2378788873012563060, guid: 31ba7a06c1a2655499238bb6fccbafc6,
        type: 3}
      propertyPath: m_LocalRotation.z
      value: -0.18180175
      objectReference: {fileID: 0}
    - target: {fileID: 2378788873012563060, guid: 31ba7a06c1a2655499238bb6fccbafc6,
        type: 3}
      propertyPath: m_LocalRotation.w
      value: 0.9833352
      objectReference: {fileID: 0}
    - target: {fileID: 2378788873012563060, guid: 31ba7a06c1a2655499238bb6fccbafc6,
        type: 3}
      propertyPath: m_LocalEulerAnglesHint.z
      value: -20.949001
      objectReference: {fileID: 0}
    - target: {fileID: 2378788873297688657, guid: 31ba7a06c1a2655499238bb6fccbafc6,
        type: 3}
      propertyPath: m_LocalPosition.x
      value: -0.64937973
      objectReference: {fileID: 0}
    - target: {fileID: 2378788873297688657, guid: 31ba7a06c1a2655499238bb6fccbafc6,
        type: 3}
      propertyPath: m_LocalPosition.y
      value: 0.4667079
      objectReference: {fileID: 0}
    - target: {fileID: 2864839192797618609, guid: 31ba7a06c1a2655499238bb6fccbafc6,
        type: 3}
      propertyPath: m_WasSpriteAssigned
      value: 1
      objectReference: {fileID: 0}
    - target: {fileID: 2864839192797618609, guid: 31ba7a06c1a2655499238bb6fccbafc6,
        type: 3}
      propertyPath: m_Size.x
      value: 0.44
      objectReference: {fileID: 0}
    - target: {fileID: 3090727725881078232, guid: 31ba7a06c1a2655499238bb6fccbafc6,
        type: 3}
      propertyPath: m_LocalRotation.z
      value: 0.44871956
      objectReference: {fileID: 0}
    - target: {fileID: 3090727725881078232, guid: 31ba7a06c1a2655499238bb6fccbafc6,
        type: 3}
      propertyPath: m_LocalRotation.w
      value: 0.89367265
      objectReference: {fileID: 0}
    - target: {fileID: 3090727725881078232, guid: 31ba7a06c1a2655499238bb6fccbafc6,
        type: 3}
      propertyPath: m_LocalEulerAnglesHint.z
      value: 53.323
      objectReference: {fileID: 0}
    - target: {fileID: 3090727725881078232, guid: 31ba7a06c1a2655499238bb6fccbafc6,
        type: 3}
      propertyPath: m_LocalPosition.x
      value: 0.06032658
      objectReference: {fileID: 0}
    - target: {fileID: 3090727725881078232, guid: 31ba7a06c1a2655499238bb6fccbafc6,
        type: 3}
      propertyPath: m_LocalPosition.y
      value: 0.6363042
      objectReference: {fileID: 0}
    - target: {fileID: 3101483101419437236, guid: 31ba7a06c1a2655499238bb6fccbafc6,
        type: 3}
      propertyPath: m_LocalRotation.z
      value: -0.093539834
      objectReference: {fileID: 0}
    - target: {fileID: 3101483101419437236, guid: 31ba7a06c1a2655499238bb6fccbafc6,
        type: 3}
      propertyPath: m_LocalRotation.w
      value: 0.9956156
      objectReference: {fileID: 0}
    - target: {fileID: 3101483101419437236, guid: 31ba7a06c1a2655499238bb6fccbafc6,
        type: 3}
      propertyPath: m_LocalRotation.x
      value: 0
      objectReference: {fileID: 0}
    - target: {fileID: 3101483101419437236, guid: 31ba7a06c1a2655499238bb6fccbafc6,
        type: 3}
      propertyPath: m_LocalRotation.y
      value: 0
      objectReference: {fileID: 0}
    - target: {fileID: 3101483101419437236, guid: 31ba7a06c1a2655499238bb6fccbafc6,
        type: 3}
      propertyPath: m_LocalEulerAnglesHint.z
      value: -101.842
      objectReference: {fileID: 0}
    - target: {fileID: 3656906848330080459, guid: 31ba7a06c1a2655499238bb6fccbafc6,
        type: 3}
      propertyPath: m_LocalRotation.z
      value: 0.726631
      objectReference: {fileID: 0}
    - target: {fileID: 3656906848330080459, guid: 31ba7a06c1a2655499238bb6fccbafc6,
        type: 3}
      propertyPath: m_LocalRotation.w
      value: 0.68702805
      objectReference: {fileID: 0}
    - target: {fileID: 3656906848330080459, guid: 31ba7a06c1a2655499238bb6fccbafc6,
        type: 3}
      propertyPath: m_LocalEulerAnglesHint.z
      value: 93.20901
      objectReference: {fileID: 0}
    - target: {fileID: 3656906848330080459, guid: 31ba7a06c1a2655499238bb6fccbafc6,
        type: 3}
      propertyPath: m_LocalPosition.y
      value: 0.9775415
      objectReference: {fileID: 0}
    - target: {fileID: 3656906848330080459, guid: 31ba7a06c1a2655499238bb6fccbafc6,
        type: 3}
      propertyPath: m_LocalPosition.x
      value: 0.0709219
      objectReference: {fileID: 0}
    - target: {fileID: 3809218789036503911, guid: 31ba7a06c1a2655499238bb6fccbafc6,
        type: 3}
      propertyPath: m_LocalRotation.z
      value: 0.5205386
      objectReference: {fileID: 0}
    - target: {fileID: 3809218789036503911, guid: 31ba7a06c1a2655499238bb6fccbafc6,
        type: 3}
      propertyPath: m_LocalRotation.w
      value: 0.85383815
      objectReference: {fileID: 0}
    - target: {fileID: 3997439394122950606, guid: 31ba7a06c1a2655499238bb6fccbafc6,
        type: 3}
      propertyPath: m_LocalRotation.z
      value: 0.9780361
      objectReference: {fileID: 0}
    - target: {fileID: 3997439394122950606, guid: 31ba7a06c1a2655499238bb6fccbafc6,
        type: 3}
      propertyPath: m_LocalRotation.w
      value: 0.20843554
      objectReference: {fileID: 0}
    - target: {fileID: 4131113633684175535, guid: 31ba7a06c1a2655499238bb6fccbafc6,
        type: 3}
      propertyPath: m_LocalRotation.z
      value: -0.026469724
      objectReference: {fileID: 0}
    - target: {fileID: 4131113633684175535, guid: 31ba7a06c1a2655499238bb6fccbafc6,
        type: 3}
      propertyPath: m_LocalRotation.w
      value: 0.99964964
      objectReference: {fileID: 0}
    - target: {fileID: 4131113633684175535, guid: 31ba7a06c1a2655499238bb6fccbafc6,
        type: 3}
      propertyPath: m_LocalEulerAnglesHint.z
      value: -3.0340002
      objectReference: {fileID: 0}
    - target: {fileID: 4536194916241300889, guid: 31ba7a06c1a2655499238bb6fccbafc6,
        type: 3}
      propertyPath: m_LocalPosition.x
      value: 1.13
      objectReference: {fileID: 0}
    - target: {fileID: 4536194916241300889, guid: 31ba7a06c1a2655499238bb6fccbafc6,
        type: 3}
      propertyPath: m_LocalPosition.y
      value: -0.07
      objectReference: {fileID: 0}
    - target: {fileID: 4536194916241300889, guid: 31ba7a06c1a2655499238bb6fccbafc6,
        type: 3}
      propertyPath: m_LocalPosition.z
      value: 0
      objectReference: {fileID: 0}
    - target: {fileID: 4536194916241300889, guid: 31ba7a06c1a2655499238bb6fccbafc6,
        type: 3}
      propertyPath: m_LocalRotation.x
      value: 0
      objectReference: {fileID: 0}
    - target: {fileID: 4536194916241300889, guid: 31ba7a06c1a2655499238bb6fccbafc6,
        type: 3}
      propertyPath: m_LocalRotation.y
      value: 0
      objectReference: {fileID: 0}
    - target: {fileID: 4536194916241300889, guid: 31ba7a06c1a2655499238bb6fccbafc6,
        type: 3}
      propertyPath: m_LocalRotation.z
      value: 0
      objectReference: {fileID: 0}
    - target: {fileID: 4536194916241300889, guid: 31ba7a06c1a2655499238bb6fccbafc6,
        type: 3}
      propertyPath: m_LocalRotation.w
      value: 1
      objectReference: {fileID: 0}
    - target: {fileID: 4536194916241300889, guid: 31ba7a06c1a2655499238bb6fccbafc6,
        type: 3}
      propertyPath: m_RootOrder
      value: 0
      objectReference: {fileID: 0}
    - target: {fileID: 4536194916241300889, guid: 31ba7a06c1a2655499238bb6fccbafc6,
        type: 3}
      propertyPath: m_LocalEulerAnglesHint.x
      value: 0
      objectReference: {fileID: 0}
    - target: {fileID: 4536194916241300889, guid: 31ba7a06c1a2655499238bb6fccbafc6,
        type: 3}
      propertyPath: m_LocalEulerAnglesHint.y
      value: 0
      objectReference: {fileID: 0}
    - target: {fileID: 4536194916241300889, guid: 31ba7a06c1a2655499238bb6fccbafc6,
        type: 3}
      propertyPath: m_LocalEulerAnglesHint.z
      value: 0
      objectReference: {fileID: 0}
    - target: {fileID: 5071659533521420320, guid: 31ba7a06c1a2655499238bb6fccbafc6,
        type: 3}
      propertyPath: m_LocalRotation.z
      value: -0.14493717
      objectReference: {fileID: 0}
    - target: {fileID: 5071659533521420320, guid: 31ba7a06c1a2655499238bb6fccbafc6,
        type: 3}
      propertyPath: m_LocalRotation.w
      value: 0.98944086
      objectReference: {fileID: 0}
    - target: {fileID: 5071659533521420320, guid: 31ba7a06c1a2655499238bb6fccbafc6,
        type: 3}
      propertyPath: m_LocalRotation.x
      value: 0
      objectReference: {fileID: 0}
    - target: {fileID: 5071659533521420320, guid: 31ba7a06c1a2655499238bb6fccbafc6,
        type: 3}
      propertyPath: m_LocalRotation.y
      value: 0
      objectReference: {fileID: 0}
    - target: {fileID: 5071659533521420320, guid: 31ba7a06c1a2655499238bb6fccbafc6,
        type: 3}
      propertyPath: m_LocalEulerAnglesHint.z
      value: -1.3360001
      objectReference: {fileID: 0}
    - target: {fileID: 5196151149249832453, guid: 31ba7a06c1a2655499238bb6fccbafc6,
        type: 3}
      propertyPath: m_LocalRotation.z
      value: -0.027242497
      objectReference: {fileID: 0}
    - target: {fileID: 5196151149249832453, guid: 31ba7a06c1a2655499238bb6fccbafc6,
        type: 3}
      propertyPath: m_LocalRotation.w
      value: 0.9996289
      objectReference: {fileID: 0}
    - target: {fileID: 5651300375241935605, guid: 31ba7a06c1a2655499238bb6fccbafc6,
        type: 3}
      propertyPath: m_LocalRotation.z
      value: -0.25630426
      objectReference: {fileID: 0}
    - target: {fileID: 5651300375241935605, guid: 31ba7a06c1a2655499238bb6fccbafc6,
        type: 3}
      propertyPath: m_LocalRotation.w
      value: 0.9665962
      objectReference: {fileID: 0}
    - target: {fileID: 6365010866865667069, guid: 31ba7a06c1a2655499238bb6fccbafc6,
        type: 3}
      propertyPath: m_LocalRotation.z
      value: 0.9992157
      objectReference: {fileID: 0}
    - target: {fileID: 6365010866865667069, guid: 31ba7a06c1a2655499238bb6fccbafc6,
        type: 3}
      propertyPath: m_LocalRotation.w
      value: -0.039599497
      objectReference: {fileID: 0}
    - target: {fileID: 7011965202158610301, guid: 31ba7a06c1a2655499238bb6fccbafc6,
        type: 3}
      propertyPath: m_Bounds.m_Center.x
      value: 0.28386194
      objectReference: {fileID: 0}
    - target: {fileID: 7011965202158610301, guid: 31ba7a06c1a2655499238bb6fccbafc6,
        type: 3}
      propertyPath: m_Bounds.m_Center.y
      value: -0.046249837
      objectReference: {fileID: 0}
    - target: {fileID: 7011965202158610301, guid: 31ba7a06c1a2655499238bb6fccbafc6,
        type: 3}
      propertyPath: m_Bounds.m_Extent.x
      value: 0.23404008
      objectReference: {fileID: 0}
    - target: {fileID: 7011965202158610301, guid: 31ba7a06c1a2655499238bb6fccbafc6,
        type: 3}
      propertyPath: m_Bounds.m_Extent.y
      value: 0.2259337
      objectReference: {fileID: 0}
    - target: {fileID: 7531408505160569638, guid: 31ba7a06c1a2655499238bb6fccbafc6,
        type: 3}
      propertyPath: m_LocalRotation.z
      value: 0.98907346
      objectReference: {fileID: 0}
    - target: {fileID: 7531408505160569638, guid: 31ba7a06c1a2655499238bb6fccbafc6,
        type: 3}
      propertyPath: m_LocalRotation.w
      value: 0.14742413
      objectReference: {fileID: 0}
    - target: {fileID: 7531408505160569638, guid: 31ba7a06c1a2655499238bb6fccbafc6,
        type: 3}
      propertyPath: m_LocalEulerAnglesHint.z
      value: 163.04501
      objectReference: {fileID: 0}
    - target: {fileID: 7531408505160569638, guid: 31ba7a06c1a2655499238bb6fccbafc6,
        type: 3}
      propertyPath: m_LocalPosition.x
      value: -0.7362796
      objectReference: {fileID: 0}
    - target: {fileID: 7531408505160569638, guid: 31ba7a06c1a2655499238bb6fccbafc6,
        type: 3}
      propertyPath: m_LocalPosition.y
      value: 0.2731708
      objectReference: {fileID: 0}
    - target: {fileID: 7779226979028568802, guid: 31ba7a06c1a2655499238bb6fccbafc6,
        type: 3}
      propertyPath: m_LocalRotation.z
      value: -0.0014831233
      objectReference: {fileID: 0}
    - target: {fileID: 7779226979028568802, guid: 31ba7a06c1a2655499238bb6fccbafc6,
        type: 3}
      propertyPath: m_LocalRotation.w
      value: 0.9999989
      objectReference: {fileID: 0}
    - target: {fileID: 8164572776156435625, guid: 31ba7a06c1a2655499238bb6fccbafc6,
        type: 3}
      propertyPath: m_LocalRotation.z
      value: 0.3869269
      objectReference: {fileID: 0}
    - target: {fileID: 8164572776156435625, guid: 31ba7a06c1a2655499238bb6fccbafc6,
        type: 3}
      propertyPath: m_LocalRotation.w
      value: 0.9221104
      objectReference: {fileID: 0}
    - target: {fileID: 8390577451369428770, guid: 31ba7a06c1a2655499238bb6fccbafc6,
        type: 3}
      propertyPath: m_LocalRotation.z
      value: 0.25381604
      objectReference: {fileID: 0}
    - target: {fileID: 8390577451369428770, guid: 31ba7a06c1a2655499238bb6fccbafc6,
        type: 3}
      propertyPath: m_LocalRotation.w
      value: 0.96725255
      objectReference: {fileID: 0}
    - target: {fileID: 8662739643664491309, guid: 31ba7a06c1a2655499238bb6fccbafc6,
        type: 3}
      propertyPath: m_LocalRotation.x
      value: -0.073614426
      objectReference: {fileID: 0}
    - target: {fileID: 8662739643664491309, guid: 31ba7a06c1a2655499238bb6fccbafc6,
        type: 3}
      propertyPath: m_LocalRotation.y
      value: 0.005854423
      objectReference: {fileID: 0}
    - target: {fileID: 8662739643664491309, guid: 31ba7a06c1a2655499238bb6fccbafc6,
        type: 3}
      propertyPath: m_LocalRotation.z
      value: -0.99413073
      objectReference: {fileID: 0}
    - target: {fileID: 8662739643664491309, guid: 31ba7a06c1a2655499238bb6fccbafc6,
        type: 3}
      propertyPath: m_LocalRotation.w
      value: 0.079062134
      objectReference: {fileID: 0}
    - target: {fileID: 8662739643664491309, guid: 31ba7a06c1a2655499238bb6fccbafc6,
        type: 3}
      propertyPath: m_LocalEulerAnglesHint.z
      value: -170.906
      objectReference: {fileID: 0}
    - target: {fileID: 8679482431972344154, guid: 31ba7a06c1a2655499238bb6fccbafc6,
        type: 3}
      propertyPath: m_LocalRotation.x
      value: 0.00040501135
      objectReference: {fileID: 0}
    - target: {fileID: 8679482431972344154, guid: 31ba7a06c1a2655499238bb6fccbafc6,
        type: 3}
      propertyPath: m_LocalRotation.y
      value: -0.010434017
      objectReference: {fileID: 0}
    - target: {fileID: 8679482431972344154, guid: 31ba7a06c1a2655499238bb6fccbafc6,
        type: 3}
      propertyPath: m_LocalRotation.z
      value: 0.14611733
      objectReference: {fileID: 0}
    - target: {fileID: 8679482431972344154, guid: 31ba7a06c1a2655499238bb6fccbafc6,
        type: 3}
      propertyPath: m_LocalRotation.w
      value: 0.98921216
      objectReference: {fileID: 0}
    - target: {fileID: 8679482431972344154, guid: 31ba7a06c1a2655499238bb6fccbafc6,
        type: 3}
      propertyPath: m_LocalEulerAnglesHint.x
      value: 0.467
      objectReference: {fileID: 0}
    - target: {fileID: 8679482431972344154, guid: 31ba7a06c1a2655499238bb6fccbafc6,
        type: 3}
      propertyPath: m_LocalEulerAnglesHint.y
      value: -0.57000005
      objectReference: {fileID: 0}
    - target: {fileID: 8679482431972344154, guid: 31ba7a06c1a2655499238bb6fccbafc6,
        type: 3}
      propertyPath: m_LocalEulerAnglesHint.z
      value: 74.296005
      objectReference: {fileID: 0}
    - target: {fileID: 8724472317885084671, guid: 31ba7a06c1a2655499238bb6fccbafc6,
        type: 3}
      propertyPath: m_LocalRotation.z
      value: 0.9921953
      objectReference: {fileID: 0}
    - target: {fileID: 8724472317885084671, guid: 31ba7a06c1a2655499238bb6fccbafc6,
        type: 3}
      propertyPath: m_LocalRotation.w
      value: -0.12469359
      objectReference: {fileID: 0}
    - target: {fileID: 8724472317885084671, guid: 31ba7a06c1a2655499238bb6fccbafc6,
        type: 3}
      propertyPath: m_LocalEulerAnglesHint.z
      value: 194.32599
      objectReference: {fileID: 0}
    - target: {fileID: 8724472317885084671, guid: 31ba7a06c1a2655499238bb6fccbafc6,
        type: 3}
      propertyPath: m_LocalPosition.x
      value: -0.7353436
      objectReference: {fileID: 0}
    - target: {fileID: 8724472317885084671, guid: 31ba7a06c1a2655499238bb6fccbafc6,
        type: 3}
      propertyPath: m_LocalPosition.y
      value: -0.38054192
      objectReference: {fileID: 0}
    m_RemovedComponents: []
  m_SourcePrefab: {fileID: 100100000, guid: 31ba7a06c1a2655499238bb6fccbafc6, type: 3}
